
{
  "news": [
    {
      "id": 1,
      "title": "1_SpaceX rocket explodes on launch pad",
      "html": "<p>Lorem ipsum dolor sit amet, consectetur adipisicing elit. Deleniti vel qui quos excepturi, sit eligendi praesentium, repellat doloremque culpa, quo aperiam. Unde obcaecati voluptas quos aut quam odio, quod autem non sunt facilis commodi rerum, incidunt odit dignissimos blanditiis placeat ullam, dolorum nulla sapiente in, asperiores esse nam voluptates cupiditate minus. Ducimus officiis, non, ratione consectetur vero reprehenderit, a voluptatibus, accusamus id voluptates ea atque quibusdam nihil magni! Natus suscipit architecto, corporis ipsam. Necessitatibus sint labore, doloribus dignissimos eaque totam quis odit at aperiam odio ullam. Dolorem, quae, dignissimos! Eius omnis a rem, exercitationem aliquid laborum impedit eos hic cupiditate.</p><div class='img-wrapper'><img src='http://localhost:3000/images/news1.jpg'></div>"
    },
    {
      "title": "2_SpaceX rocket explodes on launch pad",
      "id": 2,
      "html": "<p>Lorem ipsum dolor sit amet, consectetur adipisicing elit. Deleniti vel qui quos excepturi, sit eligendi praesentium, repellat doloremque culpa, quo aperiam. Unde obcaecati voluptas quos aut quam odio, quod autem non sunt facilis commodi rerum, incidunt odit dignissimos blanditiis placeat ullam, dolorum nulla sapiente in, asperiores esse nam voluptates cupiditate minus. Ducimus officiis, non, ratione consectetur vero reprehenderit, a voluptatibus, accusamus id voluptates ea atque quibusdam nihil magni! Natus suscipit architecto, corporis ipsam. Necessitatibus sint labore, doloribus dignissimos eaque totam quis odit at aperiam odio ullam. Dolorem, quae, dignissimos! Eius omnis a rem, exercitationem aliquid laborum impedit eos hic cupiditate.</p><div class='img-wrapper'><img src='http://localhost:3000/images/news2.jpg'></div>"
    },
    {
      "title": "3_SpaceX rocket explodes on launch pad",
      "id": 3,
      "html": "<p>Lorem ipsum dolor sit amet, consectetur adipisicing elit. Deleniti vel qui quos excepturi, sit eligendi praesentium, repellat doloremque culpa, quo aperiam. Unde obcaecati voluptas quos aut quam odio, quod autem non sunt facilis commodi rerum, incidunt odit dignissimos blanditiis placeat ullam, dolorum nulla sapiente in, asperiores esse nam voluptates cupiditate minus. Ducimus officiis, non, ratione consectetur vero reprehenderit, a voluptatibus, accusamus id voluptates ea atque quibusdam nihil magni! Natus suscipit architecto, corporis ipsam. Necessitatibus sint labore, doloribus dignissimos eaque totam quis odit at aperiam odio ullam. Dolorem, quae, dignissimos! Eius omnis a rem, exercitationem aliquid laborum impedit eos hic cupiditate.</p><div class='img-wrapper'><img src='http://localhost:3000/images/news3.jpg'></div>"
    }
  ]  
}